{
 "1": "Abellot", 
 "2": "abraçafanals", 
 "3": "absurd", 
 "4": "abusananos", 
 "5": "abusanenes", 
 "6": "acabacases", 
 "7": "acaparador", 
 "8": "accidiós", 
 "9": "acollonit", 
 "10": "acuseta", 
 "11": "adormit", 
 "12": "adupit", 
 "13": "advocat de marge", 
 "14": "advocat de secà", 
 "15": "afaitapagesos", 
 "16": "afaneta", 
 "17": "afartapobres", 
 "18": "afemellat", 
 "19": "afonacases", 
 "20": "afram", 
 "21": "agaçant", 
 "22": "agaçoris", 
 "23": "agarrat", 
 "24": "agafallós", 
 "25": "agafasopes", 
 "26": "aganit", 
 "27": "aganyit", 
 "28": "agarrat", 
 "29": "aguantaespelmes", 
 "30": "aguiló", 
 "31": "aixafabolets", 
 "32": "aixafaguitarres", 
 "33": "aixafaterrossos", 
 "34": "aixecacamises", 
 "35": "aixecasamarres", 
 "36": "alarb", 
 "37": "alatrencat", 
 "38": "albardà", 
 "39": "albat", 
 "40": "alcavot", 
 "41": "alçapius", 
 "42": "alçaporro", 
 "43": "alcohòlic", 
 "44": "alficòs", 
 "45": "alienat", 
 "46": "al·lucinat", 
 "47": "alobat", 
 "48": "amagacreus", 
 "49": "amagaolles", 
 "50": "amagapinyes", 
 "51": "amargat", 
 "52": "ampadura", 
 "53": "analfabet", 
 "54": "andoi", 
 "55": "angoni", 
 "56": "ànima de cadafet", 
 "57": "ànima de càntir", 
 "58": "ànima de Judes", 
 "59": "ànima de mal repòs", 
 "60": "ànima deserta", 
 "61": "ànima en pena", 
 "62": "animal", 
 "63": "animalàs", 
 "64": "animal de rapinya", 
 "65": "animalot", 
 "66": "anormal", 
 "67": "apagesat", 
 "68": "apardalat", 
 "69": "apollardat", 
 "70": "aprofitat", 
 "71": "aragonès", 
 "72": "aranya", 
 "73": "arganàs", 
 "74": "argaràs", 
 "75": "arlot", 
 "76": "armanac", 
 "77": "arna", 
 "78": "arpellant", 
 "79": "arrabassaqueixals", 
 "80": "arracada", 
 "81": "arrauxat", 
 "82": "arrencapèls", 
 "83": "arrecat", 
 "84": "arrencaqueixals", 
 "85": "arreplegaire", 
 "86": "arreplegat", 
 "87": "arrodit", 
 "88": "arronsat", 
 "89": "arronyacat", 
 "90": "arrossinat", 
 "91": "arrugat", 
 "92": "artista de barraca", 
 "93": "artista de plexiglàs", 
 "94": "asclaire", 
 "95": "as de bastos", 
 "96": "ase", 
 "97": "ase alabau", 
 "98": "ase mort", 
 "99": "+ ase que gros", 
 "100": "assaltador", 
 "101": "assassí", 
 "102": "assedegat", 
 "103": "assot", 
 "104": "assotacristos", 
 "105": "atabalat", 
 "106": "atontat", 
 "107": "atontat de les bombes", 
 "108": "atudacandeles", 
 "109": "aturat", 
 "110": "aujam", 
 "111": "australopitec", 
 "112": "avalotador", 
 "113": "avalotapobles", 
 "114": "avar", 
 "115": "avariciós", 
 "116": "avinat", 
 "117": "àvol fembra", 
 "118": "avortament del dimoni", 
 "119": "Babalí-babalà", 
 "120": "babau", 
 "121": "baboia", 
 "122": "bacallà", 
 "123": "bacó", 
 "124": "bacora", 
 "125": "badaluc", 
 "126": "badanes", 
 "127": "badabadoc", 
 "128": "badoc", 
 "129": "baganer", 
 "130": "bagarro", 
 "131": "bagassa", 
 "132": "bagasser", 
 "133": "bagassut", 
 "134": "baix d'aigüera", 
 "135": "baix de sostre", 
 "136": "bajà", 
 "137": "bajoc", 
 "138": "balandran", 
 "139": "baldufa", 
 "140": "balcam", 
 "141": "baliga-balaga", 
 "142": "baloni", 
 "143": "baluerna", 
 "144": "balustre", 
 "145": "bàmbol", 
 "146": "banasta", 
 "147": "banau", 
 "148": "bandarra", 
 "149": "bandit", 
 "150": "bandoler", 
 "151": "banyabaix", 
 "152": "banyarriquer", 
 "153": "banyut", 
 "154": "baranda", 
 "155": "barbamec", 
 "156": "barbantana", 
 "157": "bàrbar", 
 "158": "barbasta", 
 "159": "barbolla", 
 "160": "bardaixa", 
 "161": "bardoma", 
 "162": "bare", 
 "163": "barjaula", 
 "164": "barjaulo", 
 "165": "barra", 
 "166": "barrabam", 
 "167": "barragana", 
 "168": "barragàs", 
 "169": "barraler", 
 "170": "barram", 
 "171": "barret de rialles", 
 "172": "barretines", 
 "173": "barrim-barram", 
 "174": "barroer", 
 "175": "barrufell", 
 "176": "barrufet (mental)", 
 "177": "barrugo", 
 "178": "barrut", 
 "179": "bastaix", 
 "180": "bastard", 
 "181": "batolles", 
 "182": "baturro", 
 "183": "batusser", 
 "184": "batxiller", 
 "185": "bausador", 
 "186": "bava de gripau", 
 "187": "bavaire", 
 "188": "bavart", 
 "189": "bavós", 
 "190": "beat", 
 "191": "beata a les fosques", 
 "192": "beata farinera", 
 "193": "becmoll", 
 "194": "becó", 
 "195": "bedós", 
 "196": "befa", 
 "197": "belitre", 
 "198": "benagai", 
 "199": "beneit", 
 "200": "beneit del cabàs", 
 "201": "beoci", 
 "202": "bergant", 
 "203": "berganta", 
 "204": "berloc", 
 "205": "bernat pudent", 
 "206": "berro", 
 "207": "besaculs", 
 "208": "besanyí", 
 "209": "bèstia", 
 "210": "betzo", 
 "211": "betzol", 
 "212": "beuarra", 
 "213": "beverris", 
 "214": "bitxo", 
 "215": "blanquivilis", 
 "216": "bleda (assolellada, confitada)", 
 "217": "blet", 
 "218": "boc", 
 "219": "bocaalabau", 
 "220": "boca de fel", 
 "221": "bocafluix", 
 "222": "bocamoll", 
 "223": "bofiós", 
 "224": "boig", 
 "225": "bogia", 
 "226": "boginyot", 
 "227": "boig", 
 "228": "bolbol", 
 "229": "bolero", 
 "230": "bollicao", 
 "231": "bombat", 
 "232": "bonifaci", 
 "233": "bonyeguer", 
 "234": "boques", 
 "235": "borbó", 
 "236": "bord", 
 "237": "bordegàs", 
 "238": "bordellenc", 
 "239": "borinot", 
 "240": "borni de cervell", 
 "241": "borratxo", 
 "242": "borrango", 
 "243": "borrasser", 
 "244": "borratxo", 
 "245": "borrec", 
 "246": "bossut", 
 "247": "boterut", 
 "248": "botifarra", 
 "249": "botifarraire", 
 "250": "botifarró", 
 "251": "botifler", 
 "252": "bòtil", 
 "253": "botimflat", 
 "254": "botorut", 
 "255": "boví", 
 "256": "brac", 
 "257": "bragasses", 
 "258": "bragueter", 
 "259": "brètol", 
 "260": "brivall", 
 "261": "brivant", 
 "262": "brivó", 
 "263": "broida", 
 "264": "bronquinós", 
 "265": "bruixa", 
 "266": "bruixot", 
 "267": "brut", 
 "268": "brutinyó", 
 "269": "bubota", 
 "270": "budell", 
 "271": "bufaculs", 
 "272": "bufafocs", 
 "273": "bufaforats", 
 "274": "bufagaites", 
 "275": "bufallums", 
 "276": "bufanúvols", 
 "277": "bufat", 
 "278": "bufeta", 
 "279": "bufó", 
 "280": "bugadera", 
 "281": "buidaampolles", 
 "282": "buidabutxaques", 
 "283": "buidapisos", 
 "284": "bujarró", 
 "285": "búlgar", 
 "286": "bullanga", 
 "287": "bullanguer", 
 "288": "bunyolaire", 
 "289": "bunyoler", 
 "290": "burdimany", 
 "291": "burgès", 
 "292": "burleta", 
 "293": "burot", 
 "294": "burraca", 
 "295": "burrangues", 
 "296": "burro", 
 "297": "burro de set soles", 
 "298": "burxaire", 
 "299": "burxaorelles", 
 "300": "burxeta", 
 "301": "burxó", 
 "302": "busaroc", 
 "303": "buscabregues", 
 "304": "buscagatoses", 
 "305": "buscagotes", 
 "306": "busca-raons", 
 "307": "buscona", 
 "308": "butxaca foradada", 
 "309": "bútxara", 
 "310": "cabana", 
 "311": "cabassut", 
 "312": "cabeca", 
 "313": "cabort", 
 "314": "cabra", 
 "315": "cabrit", 
 "316": "cabró", 
 "317": "cabrona", 
 "318": "caçacagalls", 
 "319": "caçadots", 
 "320": "caçahereus", 
 "321": "caçamarits", 
 "322": "caçapubilles", 
 "323": "cacatua", 
 "324": "cafre", 
 "325": "cagaarestes", 
 "326": "cagabandúrries", 
 "327": "cagacalces", 
 "328": "cagacalçons", 
 "329": "cagacebes", 
 "330": "cagadéus", 
 "331": "cagadimonis", 
 "332": "cagadubtes", 
 "333": "cagadur", 
 "334": "cagafil", 
 "335": "cagaelàstics", 
 "336": "cagaire", 
 "337": "cagaïssa", 
 "338": "cagalatxa", 
 "339": "cagall", 
 "340": "cagalló", 
 "341": "cagalló de la gramàtica", 
 "342": "cagallot", 
 "343": "cagamandúrries", 
 "344": "cagamànecs", 
 "345": "cagamiques", 
 "346": "caganaies", 
 "347": "cagandances", 
 "348": "cagandanes", 
 "349": "caganer", 
 "350": "caganinyols", 
 "351": "caganya", 
 "352": "caganyinyetes", 
 "353": "cagaó", 
 "354": "cagapoquet", 
 "355": "cagaprim", 
 "356": "cagarada", 
 "357": "caga-ranci", 
 "358": "cagareli", 
 "359": "cagarel·lós", 
 "360": "cagarí", 
 "361": "cagarina", 
 "362": "cagarot", 
 "363": "cagarret", 
 "364": "cagarri", 
 "365": "cagarrina", 
 "366": "cagarro", 
 "367": "cagarro sec", 
 "368": "cagarul·lo", 
 "369": "cagasucs", 
 "370": "cagat", 
 "371": "cagatatxes", 
 "372": "cagat de por", 
 "373": "cagatinta", 
 "374": "cagó", 
 "375": "càgola", 
 "376": "cagolla", 
 "377": "caguelis", 
 "378": "caguerot", 
 "379": "caguerri", 
 "380": "caguerris", 
 "381": "cagueta", 
 "382": "caguetes", 
 "383": "caguerri", 
 "384": "caia", 
 "385": "caifàs", 
 "386": "caïm", 
 "387": "calamitat", 
 "388": "calàndria", 
 "389": "calavera", 
 "390": "calçasses", 
 "391": "calent de cap", 
 "392": "caletro", 
 "393": "camaco", 
 "394": "camacoix", 
 "395": "camacurt", 
 "396": "camadret", 
 "397": "calollo", 
 "398": "camàlic", 
 "399": "camallut", 
 "400": "camanduler", 
 "401": "camàndules", 
 "402": "camell", 
 "403": "cames de bròquil", 
 "404": "cames de gànguil", 
 "405": "campanar de bajoques", 
 "406": "canalla", 
 "407": "cananeu", 
 "408": "cançoner", 
 "409": "càndid", 
 "410": "canfanga", 
 "411": "canorga", 
 "412": "cantamanyanes", 
 "413": "cantamatines", 
 "414": "cantarano", 
 "415": "cantinfles", 
 "416": "cantonera", 
 "417": "canyàs", 
 "418": "caparró", 
 "419": "caparrot", 
 "420": "caparrut", 
 "421": "capat", 
 "422": "capat mental", 
 "423": "cap boig", 
 "424": "capbord", 
 "425": "capbuit", 
 "426": "cap calent", 
 "427": "capclòs", 
 "428": "cap cremat", 
 "429": "cap d'ase", 
 "430": "cap de burro", 
 "431": "cap de carbassa", 
 "432": "cap de collons", 
 "433": "cap de cony", 
 "434": "cap de cul", 
 "435": "cap de fava", 
 "436": "cap de fums", 
 "437": "cap de fusta", 
 "438": "cap de marrà", 
 "439": "cap de mastre", 
 "440": "cap de meló", 
 "441": "cap de pardals", 
 "442": "cap de porc", 
 "443": "cap desgavellat", 
 "444": "cap de sitrell", 
 "445": "cap de soca", 
 "446": "cap de sopes", 
 "447": "cap d'estopa", 
 "448": "cap d'estornell", 
 "449": "cap de suro", 
 "450": "cap de tartana", 
 "451": "cap de tort", 
 "452": "cap de trons", 
 "453": "cap dur", 
 "454": "cap esberlat", 
 "455": "capesflorat", 
 "456": "cap espès", 
 "457": "cap esquerdat", 
 "458": "capet", 
 "459": "capfluix", 
 "460": "cap fluix", 
 "461": "cap foradat", 
 "462": "capgròs", 
 "463": "cap lleuger", 
 "464": "capó", 
 "465": "cap pelat", 
 "466": "cap quadrat", 
 "467": "capriciós", 
 "468": "capritxós", 
 "469": "cap-sec", 
 "470": "capsigrany", 
 "471": "capsot", 
 "472": "captaire", 
 "473": "cap verd", 
 "474": "carabrut", 
 "475": "cara d'allò que en fan taps", 
 "476": "cara de collons", 
 "477": "cara de cony", 
 "478": "cara de cul", 
 "479": "cara de desenterrat", 
 "480": "cara de desmamar criatures", 
 "481": "cara de forrellat de presó", 
 "482": "cara de gnom", 
 "483": "cara de gos", 
 "484": "cara de Judes", 
 "485": "cara de llufa", 
 "486": "cara de merda d'oca", 
 "487": "cara de mico", 
 "488": "cara de nyau-nyau", 
 "489": "cara de pomes agres", 
 "490": "cara de prunes agres", 
 "491": "cara de santificètur", 
 "492": "cara de sípia", 
 "493": "cara d'ovella i urpes de llop", 
 "494": "caragirat", 
 "495": "carallàs", 
 "496": "carall de mitja cerilla", 
 "497": "carallet", 
 "498": "carallot", 
 "499": "caramot", 
 "500": "carbassaire", 
 "501": "carca", 
 "502": "carcaller", 
 "503": "carcamal", 
 "504": "carcany", 
 "505": "carcàs", 
 "506": "cardo", 
 "507": "careto", 
 "508": "carmellós", 
 "509": "carnaval", 
 "510": "carnisser", 
 "511": "carnús", 
 "512": "carraca", 
 "513": "carregós", 
 "514": "carreter", 
 "515": "carrincle", 
 "516": "carrincló", 
 "517": "carronya", 
 "518": "carrossa", 
 "519": "carterista", 
 "520": "cascallunes", 
 "521": "castellanufo", 
 "522": "castellufo", 
 "523": "catalanero", 
 "524": "catalanufo", 
 "525": "catalino", 
 "526": "catalufo", 
 "527": "cateto", 
 "528": "cavallot", 
 "529": "cavernícola", 
 "530": "ceballot", 
 "531": "celerat", 
 "532": "celestina", 
 "533": "cercabaralles", 
 "534": "cercabregues", 
 "535": "cerca-renous", 
 "536": "cigalet", 
 "537": "cigaleta", 
 "538": "cínic", 
 "539": "cirabotes", 
 "540": "cleptòman", 
 "541": "cloquipiu", 
 "542": "closca d'aram", 
 "543": "closcadur", 
 "544": "cocodril", 
 "545": "coix de cervell", 
 "546": "colflori", 
 "547": "colgafocs", 
 "548": "col·laboracionista", 
 "549": "colló", 
 "550": "colloneta", 
 "551": "collons grossos", 
 "552": "colzepelats", 
 "553": "comediant", 
 "554": "consagrat", 
 "555": "consentit", 
 "556": "conyarri", 
 "557": "copieta", 
 "558": "coquetó", 
 "559": "coquí", 
 "560": "corcó", 
 "561": "cornell", 
 "562": "cornut", 
 "563": "corrupat", 
 "564": "cortesana", 
 "565": "cosó", 
 "566": "cotilla", 
 "567": "cotnós", 
 "568": "cotorba", 
 "569": "covard", 
 "570": "cràpula", 
 "571": "cregut", 
 "572": "cremapalleres", 
 "573": "cremat", 
 "574": "cremida", 
 "575": "cretí", 
 "576": "cridaire", 
 "577": "criminal", 
 "578": "cuc (de forat)", 
 "579": "cuguç", 
 "580": "culacarenat", 
 "581": "cul blanc", 
 "582": "cul brut", 
 "583": "culcosit", 
 "584": "cul de bugadera", 
 "585": "cul de cafè", 
 "586": "cul de canonge", 
 "587": "cul d'església", 
 "588": "cul de taverna", 
 "589": "culdestrempat", 
 "590": "cul d'olla", 
 "591": "culejador", 
 "592": "culer", 
 "593": "culero", 
 "594": "culfaristol", 
 "595": "culgròs", 
 "596": "culimerdis", 
 "597": "culmerdós", 
 "598": "cul pelat", 
 "599": "culremena", 
 "600": "culserrat", 
 "601": "cultiparlant", 
 "602": "curandero", 
 "603": "cursi", 
 "604": "curt", 
 "605": "curt de cap", 
 "606": "curt de gambals", 
 "607": "curt de tei", 
 "608": "curt de vista", 
 "609": "més curt i no neixes", 
 "610": "més curt que una màniga de guardapits", 
 "611": "Dat pel cul", 
 "612": "dat pel sac", 
 "613": "degenerat", 
 "614": "deixat", 
 "615": "delinqüent", 
 "616": "demagog", 
 "617": "dement", 
 "618": "desagraït", 
 "619": "desairat", 
 "620": "desalapat", 
 "621": "desassenyat", 
 "622": "desastre", 
 "623": "descamisat", 
 "624": "descarat", 
 "625": "descastat", 
 "626": "descentrat", 
 "627": "descordat", 
 "628": "descregut", 
 "629": "desendreçat", 
 "630": "desequilibrat", 
 "631": "desgairat", 
 "632": "desgraciat", 
 "633": "deslleial", 
 "634": "desmanegat", 
 "635": "desmanyota", 
 "636": "despenjafigues", 
 "637": "destraler", 
 "638": "destrempat", 
 "639": "desvergonyit", 
 "640": "diable", 
 "641": "dictador", 
 "642": "dièsel", 
 "643": "dimoni", 
 "644": "dimoni escuat", 
 "645": "disbauxat", 
 "646": "dogmàtic", 
 "647": "dolent", 
 "648": "dona de cadira", 
 "649": "dona de la vida", 
 "650": "dona pública", 
 "651": "dona de mala vida", 
 "652": "dona de món", 
 "653": "dona errada", 
 "654": "dona mundana", 
 "655": "doner", 
 "656": "donjoan", 
 "657": "donota", 
 "658": "dormilega", 
 "659": "drapaire", 
 "660": "droga", 
 "661": "dropo", 
 "662": "dròpol", 
 "663": "drut", 
 "664": "Eixelebrat", 
 "665": "eixorit", 
 "666": "eixuga-semals", 
 "667": "el cap te fa fum i el cul te fa música", 
 "668": "embafós", 
 "669": "embanyat", 
 "670": "embastardit", 
 "671": "embastavaques", 
 "672": "embèfia", 
 "673": "embofegat", 
 "674": "embolicaire", 
 "675": "embrollaire", 
 "676": "embustero", 
 "677": "empaitabisbes", 
 "678": "empastifaire", 
 "679": "empeltat de conill", 
 "680": "emplastre", 
 "681": "empipador", 
 "682": "emprenyador", 
 "683": "emprenya-soques", 
 "684": "emproperi", 
 "685": "encantat", 
 "686": "enculat", 
 "687": "energumen", 
 "688": "enfavat", 
 "689": "enganyamón", 
 "690": "enredaire", 
 "691": "ensibornador", 
 "692": "ensumallufes", 
 "693": "ensumapixums", 
 "694": "entabanador", 
 "695": "enterramorts", 
 "696": "entomit", 
 "697": "entonat", 
 "698": "entremaliat", 
 "699": "enxurma", 
 "700": "enze", 
 "701": "erniós", 
 "702": "esbirro", 
 "703": "esblofit", 
 "704": "esbojarrat", 
 "705": "esca del pecat", 
 "706": "escagarrat", 
 "707": "escalfabraguetes", 
 "708": "escalfacadires", 
 "709": "escalfacigales", 
 "710": "escalfapixes", 
 "711": "escalfapolles", 
 "712": "escamarlà", 
 "713": "escamballot", 
 "714": "escamparaons", 
 "715": "escandalós", 
 "716": "escanyamarits", 
 "717": "escanyamullers", 
 "718": "escanyapobres", 
 "719": "escanya-rals", 
 "720": "escanyolit", 
 "721": "escarabat de sacristia", 
 "722": "escarabat merdisser", 
 "723": "escarabat piloter", 
 "724": "escarransit", 
 "725": "esclafacanyes", 
 "726": "esclafapets", 
 "727": "esclafaterrossos", 
 "728": "escobàs", 
 "729": "escolanet", 
 "730": "escoltallufes", 
 "731": "escoltapets", 
 "732": "esconcagat", 
 "733": "escopinada", 
 "734": "escopinya", 
 "735": "escòria", 
 "736": "escorniflaire", 
 "737": "escupadraps", 
 "738": "escurabasses", 
 "739": "escurabosses", 
 "740": "escuracassoles", 
 "741": "escurçó", 
 "742": "esfoirat", 
 "743": "esgarrapacristos", 
 "744": "esgarriacries", 
 "745": "esguerrat", 
 "746": "esmaperdut", 
 "747": "espagueti", 
 "748": "espantacriatures", 
 "749": "espantagarses", 
 "750": "espantall", 
 "751": "espantalloques", 
 "752": "espanyaportes", 
 "753": "espanyolàs", 
 "754": "espanyol ronquero, fill de punyetero", 
 "755": "espatllafestes", 
 "756": "espellingat", 
 "757": "espès", 
 "758": "espitregat", 
 "759": "espolsabutxaques", 
 "760": "espompit", 
 "761": "esporuc", 
 "762": "esqueixat", 
 "763": "esqueller", 
 "764": "esquenadret", 
 "765": "esquerranós", 
 "766": "esquilatontos", 
 "767": "esquirol", 
 "768": "esquitx", 
 "769": "estafador", 
 "770": "estaferm", 
 "771": "estaquirot", 
 "772": "estarrufat", 
 "773": "estòlid", 
 "774": "estrabul·lat", 
 "775": "estrafolari", 
 "776": "estrafolla", 
 "777": "estrambòtic", 
 "778": "estraperlista", 
 "779": "estremunciat", 
 "780": "estruç", 
 "781": "estult", 
 "782": "estúpid", 
 "783": "esvalotador", 
 "784": "esvalotat", 
 "785": "esventat", 
 "786": "etarra", 
 "787": "eunuc", 
 "788": "extravagant", 
 "789": "Facinerós", 
 "790": "falanguero", 
 "791": "fals", 
 "792": "(ets més fals que un metge que fuma)", 
 "793": "falsari", 
 "794": "faldetes", 
 "795": "faldiller", 
 "796": "fanàtic", 
 "797": "fanegues", 
 "798": "fanfarró", 
 "799": "fanjau", 
 "800": "fantasma", 
 "801": "faranduler", 
 "802": "fardassa", 
 "803": "fardo", 
 "804": "farfant", 
 "805": "farfolles", 
 "806": "fariseu", 
 "807": "farolero", 
 "808": "faroner", 
 "809": "farsaire", 
 "810": "farsant", 
 "811": "fartana", 
 "812": "fastigós", 
 "813": "fat", 
 "814": "fato", 
 "815": "fatxa", 
 "816": "fatxenda", 
 "817": "fava", 
 "818": "feinetis", 
 "819": "feixista", 
 "820": "fementit", 
 "821": "feniant", 
 "822": "fera", 
 "823": "figablana", 
 "824": "figaclosa", 
 "825": "figaflor", 
 "826": "figamolla", 
 "827": "figatova", 
 "828": "fileter", 
 "829": "filibuster", 
 "830": "filisteu", 
 "831": "filosofastre", 
 "832": "fill de bagassa", 
 "833": "fill de capellà", 
 "834": "fill de la Gran Bretanya", 
 "835": "fill de la grandíssima de sa mare", 
 "836": "fill de (la gran) puta", 
 "837": "fill del sereno", 
 "838": "fill del veí de dalt", 
 "839": "fill de mala mare", 
 "840": "fill de monja", 
 "841": "fill de Puigcerdà", 
 "842": "fill de set pares", 
 "843": "fill de rector", 
 "844": "fill de verra", 
 "845": "flabiol", 
 "846": "flaüt", 
 "847": "flàvia", 
 "848": "floralero", 
 "849": "floralista", 
 "850": "flor pansida", 
 "851": "fluix de molles", 
 "852": "foca", 
 "853": "fogó", 
 "854": "foirós", 
 "855": "foll", 
 "856": "folla fembra", 
 "857": "follanius", 
 "858": "forassenyat", 
 "859": "fòssil", 
 "860": "franquista", 
 "861": "franximan", 
 "862": "fregall", 
 "863": "fresc", 
 "864": "frescales", 
 "865": "frívol", 
 "866": "fulana", 
 "867": "fulero", 
 "868": "furot", 
 "869": "Gaig", 
 "870": "galàpet", 
 "871": "galdran", 
 "872": "galdrepa", 
 "873": "galduf", 
 "874": "galiàs", 
 "875": "galifardeu", 
 "876": "galiot", 
 "877": "galipant", 
 "878": "gallet", 
 "879": "gallimarsot", 
 "880": "gallina", 
 "881": "gallof", 
 "882": "gallofer", 
 "883": "gallòfol", 
 "884": "gallufa", 
 "885": "galtagròs", 
 "886": "galta-sorrut", 
 "887": "galtes", 
 "888": "galtes de cony", 
 "889": "galtes de farro", 
 "890": "galtes de pa tou", 
 "891": "galtut", 
 "892": "galvaner", 
 "893": "gamarús", 
 "894": "gamat", 
 "895": "gambaire", 
 "896": "gamberro", 
 "897": "gambirot", 
 "898": "gamoi", 
 "899": "ganàpia", 
 "900": "ganarra", 
 "901": "ganarrús", 
 "902": "gandul", 
 "903": "gandungues", 
 "904": "gànguil", 
 "905": "ganso", 
 "906": "gansoner", 
 "907": "gardenya", 
 "908": "gardunyaire", 
 "909": "garratibat", 
 "910": "garrepa", 
 "911": "garrí", 
 "912": "garró", 
 "913": "garroner", 
 "914": "garrons", 
 "915": "garrul", 
 "916": "garsa", 
 "917": "gasiu", 
 "918": "gastaire", 
 "919": "gatamaula", 
 "920": "gatamoixa", 
 "921": "gat de taverna", 
 "922": "gat de tina", 
 "923": "gató", 
 "924": "gau", 
 "925": "gavatx", 
 "926": "gentalla", 
 "927": "gep de burra", 
 "928": "geperut", 
 "929": "gepic", 
 "930": "gigoló", 
 "931": "gilipolles", 
 "932": "gitano", 
 "933": "golafre", 
 "934": "golfo", 
 "935": "goliard", 
 "936": "golut", 
 "937": "gonella", 
 "938": "gorrer", 
 "939": "gos", 
 "940": "gra de pus", 
 "941": "graponer", 
 "942": "grenyes", 
 "943": "grillat", 
 "944": "grimpador", 
 "945": "grimpaire", 
 "946": "gripa-sous", 
 "947": "gripau", 
 "948": "guaperes", 
 "949": "guillat", 
 "950": "guilopo", 
 "951": "guineu", 
 "952": "guiri", 
 "953": "Hipòcrita", 
 "954": "heretge", 
 "955": "hippy", 
 "956": "hortera", 
 "957": "Idiota", 
 "958": "ignominiós", 
 "959": "ignorant", 
 "960": "il·luminat", 
 "961": "imbècil", 
 "962": "impertinent", 
 "963": "impostor", 
 "964": "impresentable", 
 "965": "incapaç", 
 "966": "incompetent", 
 "967": "indecent", 
 "968": "indesitjable", 
 "969": "indocumentat", 
 "970": "inepte", 
 "971": "infeliç", 
 "972": "ingrat", 
 "973": "innocent", 
 "974": "insensat", 
 "975": "insensible", 
 "976": "insolent", 
 "977": "integrista", 
 "978": "intransigent", 
 "979": "inútil", 
 "980": "inxa", 
 "981": "irreponsable", 
 "982": "isard", 
 "983": "isidro", 
 "984": "Janet", 
 "985": "janfotre", 
 "986": "jesuïta", 
 "987": "jirafa", 
 "988": "Joan calcetes", 
 "989": "Joan faldilles", 
 "990": "judes", 
 "991": "jueu", 
 "992": "juràssic", 
 "993": "Lacasito", 
 "994": "larel·li", 
 "995": "lelo", 
 "996": "lero", 
 "997": "lila", 
 "998": "lilaina", 
 "999": "lilau", 
 "1000": "lil·liputenc", 
 "1001": "liró", 
 "1002": "lladre", 
 "1003": "lladregot", 
 "1004": "lladremaner", 
 "1005": "llagast", 
 "1006": "llagoter", 
 "1007": "llampat", 
 "1008": "llàntia", 
 "1009": "llanut", 
 "1010": "llaràs", 
 "1011": "llardefa", 
 "1012": "llardós", 
 "1013": "llardufa", 
 "1014": "llarg de dits", 
 "1015": "llefiscós", 
 "1016": "lleganyós", 
 "1017": "llengua de destral", 
 "1018": "llengua de draps", 
 "1019": "llengua d'escorpí", 
 "1020": "llengua de serp", 
 "1021": "llenguallarg", 
 "1022": "llenguerut", 
 "1023": "llepacigales", 
 "1024": "llepa", 
 "1025": "llepaconys", 
 "1026": "llepaculs", 
 "1027": "llepafigues", 
 "1028": "llepafils", 
 "1029": "llepaire", 
 "1030": "llepaplats", 
 "1031": "llepa-xones", 
 "1032": "llibertí", 
 "1033": "lligaire de platja", 
 "1034": "lligamosques", 
 "1035": "llimac", 
 "1036": "llondro", 
 "1037": "llonze", 
 "1038": "llonzo", 
 "1039": "llord", 
 "1040": "lloro", 
 "1041": "llosc", 
 "1042": "lluç", 
 "1043": "llusc", 
 "1044": "lolailo", 
 "1045": "Macaco", 
 "1046": "macarell", 
 "1047": "macarel·la", 
 "1048": "macarra", 
 "1049": "macarró", 
 "1050": "mà foradada", 
 "1051": "mafiós", 
 "1052": "maganto", 
 "1053": "mai calla", 
 "1054": "maimó", 
 "1055": "majara", 
 "1056": "malabèstia", 
 "1057": "mala bruixa", 
 "1058": "mala dona", 
 "1059": "mala fembra", 
 "1060": "malaganós", 
 "1061": "malagradós", 
 "1062": "malagraït", 
 "1063": "malaire", 
 "1064": "malandrí", 
 "1065": "malànima", 
 "1066": "malallengua", 
 "1067": "malallet", 
 "1068": "malalt", 
 "1069": "malambrós", 
 "1070": "malandrí", 
 "1071": "malapeça", 
 "1072": "malapècora", 
 "1073": "malapell", 
 "1074": "mala persona", 
 "1075": "malapesta", 
 "1076": "mala pinta", 
 "1077": "malaputa", 
 "1078": "malarec", 
 "1079": "malastre", 
 "1080": "mala truja podrida", 
 "1081": "mal bitxo", 
 "1082": "malcarat", 
 "1083": "malcardat", 
 "1084": "malcriat", 
 "1085": "malcuat", 
 "1086": "maldestre", 
 "1087": "mal dimoni", 
 "1088": "maleducat", 
 "1089": "maleït", 
 "1090": "malengiponat", 
 "1091": "malesmans", 
 "1092": "malfactor", 
 "1093": "malfargat", 
 "1094": "malfatà", 
 "1095": "malfeiner", 
 "1096": "malforjat", 
 "1097": "malgastador", 
 "1098": "mallenga", 
 "1099": "mallerenga", 
 "1100": "malmirrós", 
 "1101": "malnascut", 
 "1102": "malnat", 
 "1103": "malparit", 
 "1104": "malparlat", 
 "1105": "malpensat", 
 "1106": "malpuat", 
 "1107": "malsucós", 
 "1108": "malvat", 
 "1109": "malxinat", 
 "1110": "mamaire", 
 "1111": "mamanyer", 
 "1112": "mamarratxo", 
 "1113": "mamaruques", 
 "1114": "mamat", 
 "1115": "mamó", 
 "1116": "manasses", 
 "1117": "mandongo", 
 "1118": "mandonguilla", 
 "1119": "mandra", 
 "1120": "mandrós", 
 "1121": "manefla", 
 "1122": "mangoner", 
 "1123": "mangui", 
 "1124": "manifasser", 
 "1125": "manolo", 
 "1126": "mansforadades", 
 "1127": "manso", 
 "1128": "manta", 
 "1129": "maranya", 
 "1130": "marassa", 
 "1131": "marcolfa", 
 "1132": "marfanta", 
 "1133": "marfec", 
 "1134": "màrfega", 
 "1135": "maribruta", 
 "1136": "marica", 
 "1137": "maricó", 
 "1138": "maricona", 
 "1139": "mariconàs", 
 "1140": "maricon de platja", 
 "1141": "mariconet", 
 "1142": "marieta", 
 "1143": "marimatxo", 
 "1144": "marioneta", 
 "1145": "maripili", 
 "1146": "marmota", 
 "1147": "marmanyera", 
 "1148": "maromo", 
 "1149": "marrà", 
 "1150": "marrec", 
 "1151": "marxanda", 
 "1152": "masclot", 
 "1153": "mastegablens", 
 "1154": "mastegacera", 
 "1155": "mastegaparaules", 
 "1156": "mastegaparenostres", 
 "1157": "mastegatatxes", 
 "1158": "matadones", 
 "1159": "mataformigues", 
 "1160": "matalasser", 
 "1161": "matalot", 
 "1162": "matapobres", 
 "1163": "matat", 
 "1164": "maturranga", 
 "1165": "matusser", 
 "1166": "maula", 
 "1167": "mec", 
 "1168": "mediocre", 
 "1169": "menjacapellans", 
 "1170": "menjahòsties", 
 "1171": "menjamerda", 
 "1172": "menjapà", 
 "1173": "mentider", 
 "1174": "menyspreable", 
 "1175": "merda-seca", 
 "1176": "merdeta", 
 "1177": "merdis", 
 "1178": "merdós", 
 "1179": "meretriu", 
 "1180": "mesell", 
 "1181": "mesquí", 
 "1182": "messalina", 
 "1183": "mestretites", 
 "1184": "meuca", 
 "1185": "mico", 
 "1186": "mico de la merda", 
 "1187": "microbi", 
 "1188": "milhomes", 
 "1189": "militonto", 
 "1190": "mindundis", 
 "1191": "mingo", 
 "1192": "miserable", 
 "1193": "missaire", 
 "1194": "mitjacerilla", 
 "1195": "mitjafiga", 
 "1196": "mitja hòstia", 
 "1197": "mitjamerda", 
 "1198": "mitjanena", 
 "1199": "moc", 
 "1200": "mocós", 
 "1201": "mofeta", 
 "1202": "mojamet", 
 "1203": "mona", 
 "1204": "mona de la merda", 
 "1205": "mongòlic", 
 "1206": "monstre", 
 "1207": "monya", 
 "1208": "monyes", 
 "1209": "moraco", 
 "1210": "morbós", 
 "1211": "moro", 
 "1212": "morrut", 
 "1213": "mort de dins", 
 "1214": "mort de gana", 
 "1215": "mosca collonera", 
 "1216": "mosca vironera", 
 "1217": "mosqueta morta", 
 "1218": "mossega", 
 "1219": "mula", 
 "1220": "mundana", 
 "1221": "murga", 
 "1222": "murgaire", 
 "1223": "murri", 
 "1224": "musicastre", 
 "1225": "mussol", 
 "1226": "mustafà", 
 "1227": "Nan", 
 "1228": "nap-buf", 
 "1229": "napiós", 
 "1230": "nas de carxofa", 
 "1231": "nas de fura", 
 "1232": "nas de mocs", 
 "1233": "nas de patata", 
 "1234": "nazi", 
 "1235": "neci", 
 "1236": "negat", 
 "1237": "negrero", 
 "1238": "neures", 
 "1239": "neuròtic", 
 "1240": "nici", 
 "1241": "ninai", 
 "1242": "ninot", 
 "1243": "noguer", 
 "1244": "noningú", 
 "1245": "notícies", 
 "1246": "no vals la corda per penjar-te", 
 "1247": "no vals ni la merda que cagues", 
 "1248": "no vals ni un pet de puta", 
 "1249": "nul·litat", 
 "1250": "nyarro", 
 "1251": "nyèbit", 
 "1252": "nyeu-nyeu", 
 "1253": "nycris", 
 "1254": "Obcecat", 
 "1255": "obsés", 
 "1256": "obtús", 
 "1257": "òliba", 
 "1258": "oligofrènic", 
 "1259": "onso", 
 "1260": "opusià", 
 "1261": "orangutan", 
 "1262": "orat", 
 "1263": "orc", 
 "1264": "orellut", 
 "1265": "orni", 
 "1266": "ós marí", 
 "1267": "Pabràs", 
 "1268": "paganini", 
 "1269": "pagano", 
 "1270": "pagès", 
 "1271": "pagesot", 
 "1272": "palangana", 
 "1273": "palanganer", 
 "1274": "palatreca", 
 "1275": "palatreco", 
 "1276": "pal d'escombra", 
 "1277": "pallasso", 
 "1278": "pallisses", 
 "1279": "pallús", 
 "1280": "palpabutxaques", 
 "1281": "palpalloques", 
 "1282": "palpallosca", 
 "1283": "palpaventres", 
 "1284": "pàmfil", 
 "1285": "pamort", 
 "1286": "pampana", 
 "1287": "pamplina", 
 "1288": "panarra", 
 "1289": "panoli", 
 "1290": "panot", 
 "1291": "pansa", 
 "1292": "panxaampla", 
 "1293": "panxa-birra", 
 "1294": "panxacontent", 
 "1295": "panxafart", 
 "1296": "paó", 
 "1297": "papadiners", 
 "1298": "papagai", 
 "1299": "papallona", 
 "1300": "papallusqueti", 
 "1301": "papanates", 
 "1302": "paparra", 
 "1303": "paperina", 
 "1304": "paquet", 
 "1305": "paranoic", 
 "1306": "pardalà", 
 "1307": "passerell", 
 "1308": "passota", 
 "1309": "pastanaga", 
 "1310": "pastifa", 
 "1311": "patafier", 
 "1312": "patata", 
 "1313": "patètic", 
 "1314": "patillero", 
 "1315": "patiràs", 
 "1316": "patufet", 
 "1317": "patusca", 
 "1318": "patxec", 
 "1319": "pebràs", 
 "1320": "pec", 
 "1321": "pedant", 
 "1322": "pederasta", 
 "1323": "peixatera", 
 "1324": "pelacanyes", 
 "1325": "pelagats", 
 "1326": "pelapunyetes", 
 "1327": "pelitreques", 
 "1328": "pellam", 
 "1329": "pelleringa", 
 "1330": "pellerofa", 
 "1331": "pellerot", 
 "1332": "pellofa", 
 "1333": "pelma", 
 "1334": "penco", 
 "1335": "pendó", 
 "1336": "penjat", 
 "1337": "penós", 
 "1338": "penques", 
 "1339": "pepa", 
 "1340": "pepero", 
 "1341": "pepona", 
 "1342": "perdonavides", 
 "1343": "perdulari", 
 "1344": "perepunyetes", 
 "1345": "peresós", 
 "1346": "peringat", 
 "1347": "pertorbat", 
 "1348": "pesat", 
 "1349": "pesta", 
 "1350": "pet", 
 "1351": "pet bufat", 
 "1352": "petaculs", 
 "1353": "petaner", 
 "1354": "petardo", 
 "1355": "pet de llufa", 
 "1356": "petimetre", 
 "1357": "petulant", 
 "1358": "picallós", 
 "1359": "picaplets", 
 "1360": "pidolaire", 
 "1361": "pigmeu", 
 "1362": "pilingui", 
 "1363": "pillard", 
 "1364": "pillastre", 
 "1365": "pillet", 
 "1366": "pilloc", 
 "1367": "pilota", 
 "1368": "pingo", 
 "1369": "pinta", 
 "1370": "pintamones", 
 "1371": "pinxo", 
 "1372": "pioc", 
 "1373": "pirat", 
 "1374": "pirata", 
 "1375": "pispa", 
 "1376": "pitecantrop", 
 "1377": "pitof", 
 "1378": "piusell", 
 "1379": "pixafreda", 
 "1380": "pixaire", 
 "1381": "pixallits", 
 "1382": "pixapins", 
 "1383": "pixa-reixes", 
 "1384": "pixatinta", 
 "1385": "pixavagant", 
 "1386": "pixorro", 
 "1387": "plantofa", 
 "1388": "plasta", 
 "1389": "plom", 
 "1390": "ploma", 
 "1391": "ploramiques", 
 "1392": "pocapena", 
 "1393": "poca-roba", 
 "1394": "poca-solta", 
 "1395": "poca-substància", 
 "1396": "pocatraça", 
 "1397": "pocavergonya", 
 "1398": "poc-cervell", 
 "1399": "podat-a-ras-de-soca", 
 "1400": "podrit", 
 "1401": "poetastre", 
 "1402": "polaco", 
 "1403": "politicastre", 
 "1404": "politiquer", 
 "1405": "pollastre", 
 "1406": "pollós", 
 "1407": "poll ressuscitat", 
 "1408": "poll revingut", 
 "1409": "poltró", 
 "1410": "poma", 
 "1411": "pop", 
 "1412": "pop d'aigüera", 
 "1413": "populista", 
 "1414": "porc", 
 "1415": "porcell", 
 "1416": "porc mal abeurat", 
 "1417": "posó", 
 "1418": "potafí", 
 "1419": "potiner", 
 "1420": "pòtol", 
 "1421": "prepotent", 
 "1422": "presidiari", 
 "1423": "presumptuós", 
 "1424": "pretensiós", 
 "1425": "pringat", 
 "1426": "proletari", 
 "1427": "prostituta", 
 "1428": "proxeneta", 
 "1429": "psicòpata", 
 "1430": "pudall", 
 "1431": "pudent", 
 "1432": "punyestret", 
 "1433": "punyetero", 
 "1434": "pureta", 
 "1435": "púrria", 
 "1436": "purrialla", 
 "1437": "pusil·lànime", 
 "1438": "puta", 
 "1439": "putamanyac", 
 "1440": "putana", 
 "1441": "putapènic", 
 "1442": "putero", 
 "1443": "puto", 
 "1444": "putot", 
 "1445": "putxinel·li", 
 "1446": "Qualsevol", 
 "1447": "quatreulls", 
 "1448": "queco", 
 "1449": "quemaco", 
 "1450": "qüentista", 
 "1451": "quico", 
 "1452": "quinqui", 
 "1453": "quinyol", 
 "1454": "quisca", 
 "1455": "quiscarro", 
 "1456": "Rabassut", 
 "1457": "rabosa", 
 "1458": "raca", 
 "1459": "rampoina", 
 "1460": "rapalluïses", 
 "1461": "rapinyaire", 
 "1462": "rasputí", 
 "1463": "rata", 
 "1464": "rata de claveguera", 
 "1465": "rata pudenta", 
 "1466": "rave", 
 "1467": "reaccionari", 
 "1468": "rebec", 
 "1469": "rebitllapatotes", 
 "1470": "rebordonit", 
 "1471": "refastinyós", 
 "1472": "reganyós", 
 "1473": "remenamerdes", 
 "1474": "remugaire", 
 "1475": "renegaire", 
 "1476": "renegat", 
 "1477": "renoc", 
 "1478": "rentacares", 
 "1479": "repel·lent", 
 "1480": "repugnant", 
 "1481": "retardat (mental)", 
 "1482": "revellit", 
 "1483": "ribald", 
 "1484": "robafaves", 
 "1485": "robagallines", 
 "1486": "robamelons", 
 "1487": "rodamón", 
 "1488": "rodatavernes", 
 "1489": "romancer", 
 "1490": "rondinaire", 
 "1491": "ronsa", 
 "1492": "ronyós", 
 "1493": "rosegaaltars", 
 "1494": "ruc", 
 "1495": "rufià", 
 "1496": "Sabatot", 
 "1497": "saburall", 
 "1498": "sac de carn", 
 "1499": "sac de gemecs", 
 "1500": "sac de mentides", 
 "1501": "sac de merda", 
 "1502": "sac de patates", 
 "1503": "sac de puces", 
 "1504": "sac d'ossos", 
 "1505": "safaretger", 
 "1506": "sagristà de l'idioma", 
 "1507": "saldo", 
 "1508": "saldoni", 
 "1509": "salop", 
 "1510": "saltabarrancs", 
 "1511": "saltamarges", 
 "1512": "saltaparets", 
 "1513": "saltataulells", 
 "1514": "saltaterrats", 
 "1515": "saltejador", 
 "1516": "saltimbanqui", 
 "1517": "salvatge", 
 "1518": "sangonera", 
 "1519": "sanguinari", 
 "1520": "sanxa", 
 "1521": "sapastre", 
 "1522": "sargall", 
 "1523": "sarnós", 
 "1524": "satanàs", 
 "1525": "sàtir", 
 "1526": "sàtrapa", 
 "1527": "sauma", 
 "1528": "savoc", 
 "1529": "secall", 
 "1530": "sergent", 
 "1531": "setciències", 
 "1532": "simi", 
 "1533": "simple", 
 "1534": "sionista", 
 "1535": "soc", 
 "1536": "soca", 
 "1537": "sociata", 
 "1538": "somiatruites", 
 "1539": "sòmines", 
 "1540": "sonat", 
 "1541": "sonso", 
 "1542": "sopes", 
 "1543": "sopu", 
 "1544": "subnormal", 
 "1545": "sudaca", 
 "1546": "suro", 
 "1547": "Tabalot", 
 "1548": "tacany", 
 "1549": "tafaner", 
 "1550": "tafur", 
 "1551": "talero", 
 "1552": "tallabosses", 
 "1553": "talòs", 
 "1554": "talp", 
 "1555": "tanasi", 
 "1556": "tanoca", 
 "1557": "tapadora", 
 "1558": "tapaforats", 
 "1559": "tapateules", 
 "1560": "tapatroles", 
 "1561": "tap de bassa", 
 "1562": "taral·lirot", 
 "1563": "tarambana", 
 "1564": "tarandós", 
 "1565": "tarat", 
 "1566": "tarit-tarot", 
 "1567": "tastaolletes", 
 "1568": "taujà", 
 "1569": "taül", 
 "1570": "taüt", 
 "1571": "templagaites", 
 "1572": "terrorista", 
 "1573": "testaferro", 
 "1574": "testarrut", 
 "1575": "tetron", 
 "1576": "teulades", 
 "1577": "tifa", 
 "1578": "timba", 
 "1579": "tinyeta", 
 "1580": "tinyós", 
 "1581": "tirà", 
 "1582": "tiroli", 
 "1583": "titafluixa", 
 "1584": "titafreda", 
 "1585": "titella", 
 "1586": "titot", 
 "1587": "tocamanetes", 
 "1588": "toca-son", 
 "1589": "tocat de l'ala", 
 "1590": "tocat del bolet", 
 "1591": "tocacampanes", 
 "1592": "tocatabals", 
 "1593": "tocatardà", 
 "1594": "tocatrons", 
 "1595": "tocino", 
 "1596": "tòfol", 
 "1597": "toix", 
 "1598": "toixarrut", 
 "1599": "tomany", 
 "1600": "tomàquet", 
 "1601": "tonto", 
 "1602": "topi", 
 "1603": "torero", 
 "1604": "torrabolets", 
 "1605": "torracollons", 
 "1606": "torrafaves", 
 "1607": "torrapipes", 
 "1608": "torrat", 
 "1609": "tosc", 
 "1610": "tossut", 
 "1611": "tòtil", 
 "1612": "totxo", 
 "1613": "trabucaire", 
 "1614": "trafolla", 
 "1615": "tragó", 
 "1616": "traïdor", 
 "1617": "trampista", 
 "1618": "trànsfuga", 
 "1619": "trapella", 
 "1620": "trasto", 
 "1621": "trastocat", 
 "1622": "trencaavellanes", 
 "1623": "trencafaroles", 
 "1624": "trencatot", 
 "1625": "trepa", 
 "1626": "trepitjafarigoles", 
 "1627": "triler enganyavelles", 
 "1628": "trincó", 
 "1629": "trinxeraire", 
 "1630": "troglodita", 
 "1631": "trolero", 
 "1632": "trompa", 
 "1633": "trompellot", 
 "1634": "tronat", 
 "1635": "tronera", 
 "1636": "tronxo (de col)", 
 "1637": "tros d'animal", 
 "1638": "tros d'ase", 
 "1639": "tros de carn batejada", 
 "1640": "tros de quòniam", 
 "1641": "trucagenolls", 
 "1642": "truà", 
 "1643": "truja", 
 "1644": "trujassa", 
 "1645": "tuno", 
 "1646": "tupet", 
 "1647": "Ull de poll", 
 "1648": "unflapipes", 
 "1649": "unglallarg", 
 "1650": "urpallut", 
 "1651": "usurer", 
 "1652": "Vaca burra", 
 "1653": "vagabund", 
 "1654": "vagarro", 
 "1655": "vampir", 
 "1656": "vella bruixa", 
 "1657": "vellaraco", 
 "1658": "vellarro", 
 "1659": "vell verd", 
 "1660": "venat", 
 "1661": "venut", 
 "1662": "verbagàlia", 
 "1663": "verduler", 
 "1664": "verro", 
 "1665": "vesànic", 
 "1666": "viciós", 
 "1667": "vigatà", 
 "1668": "viola de femer", 
 "1669": "virago", 
 "1670": "vivales", 
 "1671": "voltor", 
 "1672": "Xafarder", 
 "1673": "xaixo", 
 "1674": "xalat", 
 "1675": "xandó", 
 "1676": "xantatgista", 
 "1677": "xanxes", 
 "1678": "xanxó", 
 "1679": "xapero", 
 "1680": "xarlaire", 
 "1681": "xarlatà", 
 "1682": "xarnego", 
 "1683": "xaró", 
 "1684": "xarlot", 
 "1685": "xarxó", 
 "1686": "xerraire", 
 "1687": "xeubo", 
 "1688": "xibeca", 
 "1689": "xiflat", 
 "1690": "ximple(t)", 
 "1691": "xinxa", 
 "1692": "xinxa de bosc", 
 "1693": "xipoter", 
 "1694": "xirucaire", 
 "1695": "xitxarel·lo", 
 "1696": "xiulat", 
 "1697": "xomino", 
 "1698": "xona", 
 "1699": "xonassa", 
 "1700": "xondales", 
 "1701": "xondan", 
 "1702": "xoriço", 
 "1703": "xot", 
 "1704": "xuclaaixetes", 
 "1705": "xuc de carbassa", 
 "1706": "xueta", 
 "1707": "xuleta", 
 "1708": "xulla", 
 "1709": "xulo", 
 "1710": "xungo", 
 "1711": "xurrimandusca", 
 "1712": "xurro", 
 "1713": "xusma", 
 "1714": "Zero a l'esquerra", 
 "1715": "zombi"
}